…
```r
temp %>% filter(value >= 70) %>% 
  group_by(X1) %>%
  summarise(n = n()) %>%
  arrange(-n)
```

```
## # A tibble: 355 x 2
##    X1              n
##    <chr>       <int>
##  1 SRR12182137    16
##  2 SRR12182146    16
##  3 SRR12182151    16
##  4 SRR12182152    16
##  5 ERR4204337     14
##  6 ERR4204912     14
##  7 ERR4206040     14
##  8 ERR4207355     14
##  9 ERR4208822     14
## 10 SRR12182120    14
## # … with 345 more rows
```
…
```r
ggsave("Scatter_misasm_dupliR.pdf", width = 24, height = 10, units = "cm")

s3 %>% group_by(asm, assay) %>%
  summarise(count = n())
```

```
## # A tibble: 80 x 3
## # Groups:   asm [16]
##    asm     assay            count
##    <chr>   <chr>            <int>
##  1 abyss21 AMPLICON            78
##  2 abyss21 OTHER               59
##  3 abyss21 RNA-Seq             32
##  4 abyss21 Targeted-Capture    68
##  5 abyss21 WGA                 92
##  6 abyss63 AMPLICON            74
##  7 abyss63 OTHER               58
##  8 abyss63 RNA-Seq             28
##  9 abyss63 Targeted-Capture    78
## 10 abyss63 WGA                 96
## # … with 70 more rows
```
…
